{
  "$schema": "https://deno.land/x/denon@2.4.7/schema.json",
  "env": {
    "TOKEN":"SUPER SECRET TOKEN"
  },
  "scripts": {
    "start": {
      "cmd": "deno run server.ts",
      "desc": "Run the main server",
      "allow": [
        "env",
        "net"
      ],
      "env": {
        "PORT":"5000"
      },
      "logger":{
        "debug":true
      }
    }
  }
}